[
    {
        "asset": {
            "name": "//cloudresourcemanager.googleapis.com/organizations/123456789012",
            "ancestors": [
                "organizations/123456789012"
            ],
            "ancestorsDisplayName": [
                "ramtests.test"
            ],
            "ancestryPath": "organization/123456789012",
            "ancestryPathDisplayName": "ramtests.test",
            "ancestry_path": "organization/123456789012",
            "assetType": "cloudresourcemanager.googleapis.com/Organization",
            "asset_type": "cloudresourcemanager.googleapis.com/Organization",
            "origin": "batch-export",
            "owner": "",
            "violationResolver": "",
            "resource": {
                "version": "v1",
                "discovery_document_uri": "https://cloudresourcemanager.googleapis.com/$discovery/rest?version=v1",
                "discovery_name": "Organization",
                "data": {
                    "creationTime": "2020-10-30T09:00:52.488Z",
                    "displayName": "ramtests.test",
                    "lifecycleState": "ACTIVE",
                    "name": "organizations/123456789012",
                    "owner": {
                        "directoryCustomerId": "A0a1b2c3d4"
                    }
                }
            },
            "iamPolicy": null,
            "iam_policy": null,
            "projectID": ""
        }
    },
    {
        "asset": {
            "name": "//cloudresourcemanager.googleapis.com/folders/123456789012",
            "ancestors": [
                "folders/123456789012",
                "organizations/123456789012"
            ],
            "ancestorsDisplayName": [
                "foldera",
                "ramtests.test"
            ],
            "ancestryPath": "organization/123456789012/folder/123456789012",
            "ancestryPathDisplayName": "ramtests.test/foldera",
            "ancestry_path": "organization/123456789012/folder/123456789012",
            "assetType": "cloudresourcemanager.googleapis.com/Folder",
            "asset_type": "cloudresourcemanager.googleapis.com/Folder",
            "origin": "real-time",
            "owner": "",
            "violationResolver": "",
            "resource": {
                "version": "v2",
                "discovery_document_uri": "https://cloudresourcemanager.googleapis.com/$discovery/rest?version=v2",
                "discovery_name": "Folder",
                "parent": "//cloudresourcemanager.googleapis.com/organizations/123456789012",
                "data": {
                    "createTime": "2018-11-19T16:17:59.603Z",
                    "displayName": "foldera",
                    "lifecycleState": "ACTIVE",
                    "name": "folders/123456789012",
                    "parent": "organizations/123456789012"
                }
            },
            "iamPolicy": null,
            "iam_policy": null,
            "projectID": ""
        }
    },
    {
        "asset": {
            "name": "//cloudresourcemanager.googleapis.com/projects/123456789012",
            "ancestors": [
                "projects/123456789012",
                "folders/123456789012",
                "folders/098765432109",
                "organizations/123456789012"
            ],
            "ancestorsDisplayName": [
                "project01",
                "folderb",
                "foldera",
                "ramtests.test"
            ],
            "ancestryPath": "organization/123456789012/folder/098765432109/folder/123456789012/project/123456789012",
            "ancestryPathDisplayName": "ramtests.test/foldera/folderb/project01",
            "ancestry_path": "organization/123456789012/folder/098765432109/folder/123456789012/project/123456789012",
            "assetType": "cloudresourcemanager.googleapis.com/Project",
            "asset_type": "cloudresourcemanager.googleapis.com/Project",
            "origin": "batch-export",
            "owner": "justine",
            "violationResolver": "patrick",
            "resource": {
                "version": "v1",
                "discovery_document_uri": "https://cloudresourcemanager.googleapis.com/$discovery/rest?version=v1",
                "discovery_name": "Project",
                "parent": "//cloudresourcemanager.googleapis.com/folders/123456789012",
                "data": {
                    "createTime": "2020-01-16T20:13:32.748Z",
                    "labels": {
                        "owner": "justine",
                        "resolver": "patrick"
                    },
                    "lifecycleState": "ACTIVE",
                    "name": "project01",
                    "parent": {
                        "id": "123456789012",
                        "type": "folder"
                    },
                    "projectId": "project01z",
                    "projectNumber": "123456789012"
                }
            },
            "iamPolicy": null,
            "iam_policy": null,
            "projectID": "project01z"
        }
    },
    {
        "asset": {
            "name": "//bigquery.googleapis.com/projects/brunore-ram-prd-023/datasets/ram",
            "ancestors": [
                "projects/133703475747",
                "folders/610996297248",
                "folders/800047992631",
                "organizations/315386636601"
            ],
            "ancestorsDisplayName": [
                "brunore-ram-prd-023",
                "ram",
                "managed-workloads",
                "gs.brunore.org"
            ],
            "ancestryPath": "organization/315386636601/folder/800047992631/folder/610996297248/project/133703475747",
            "ancestryPathDisplayName": "gs.brunore.org/managed-workloads/ram/brunore-ram-prd-023",
            "ancestry_path": "organization/315386636601/folder/800047992631/folder/610996297248/project/133703475747",
            "assetType": "bigquery.googleapis.com/Dataset",
            "asset_type": "bigquery.googleapis.com/Dataset",
            "origin": "batch-export",
            "owner": "",
            "violationResolver": "",
            "resource": null,
            "iamPolicy": {
                "bindings": [
                    {
                        "members": [
                            "projectEditor:brunore-ram-prd-023"
                        ],
                        "role": "roles/bigquery.dataEditor"
                    },
                    {
                        "members": [
                            "projectOwner:brunore-ram-prd-023",
                            "serviceAccount:133703475747@cloudbuild.gserviceaccount.com"
                        ],
                        "role": "roles/bigquery.dataOwner"
                    },
                    {
                        "members": [
                            "projectViewer:brunore-ram-prd-023"
                        ],
                        "role": "roles/bigquery.dataViewer"
                    }
                ],
                "etag": "BwWxNpzBRzI="
            },
            "iam_policy": {
                "bindings": [
                    {
                        "members": [
                            "projectEditor:brunore-ram-prd-023"
                        ],
                        "role": "roles/bigquery.dataEditor"
                    },
                    {
                        "members": [
                            "projectOwner:brunore-ram-prd-023",
                            "serviceAccount:133703475747@cloudbuild.gserviceaccount.com"
                        ],
                        "role": "roles/bigquery.dataOwner"
                    },
                    {
                        "members": [
                            "projectViewer:brunore-ram-prd-023"
                        ],
                        "role": "roles/bigquery.dataViewer"
                    }
                ],
                "etag": "BwWxNpzBRzI="
            }
        }
    }
]