module gitlab.com/realtime-asset-monitor/utilities

go 1.22

require (
	cloud.google.com/go/firestore v1.15.0
	cloud.google.com/go/pubsub v1.40.0
	github.com/cloudevents/sdk-go/protocol/pubsub/v2 v2.15.2
	github.com/cloudevents/sdk-go/v2 v2.15.2
	github.com/google/uuid v1.6.0
	github.com/kelseyhightower/envconfig v1.4.0
	google.golang.org/api v0.187.0
)

require (
	cloud.google.com/go v0.115.0 // indirect
	cloud.google.com/go/auth v0.6.1 // indirect
	cloud.google.com/go/auth/oauth2adapt v0.2.2 // indirect
	cloud.google.com/go/compute/metadata v0.4.0 // indirect
	cloud.google.com/go/iam v1.1.10 // indirect
	cloud.google.com/go/longrunning v0.5.9 // indirect
	github.com/felixge/httpsnoop v1.0.4 // indirect
	github.com/go-logr/logr v1.4.2 // indirect
	github.com/go-logr/stdr v1.2.2 // indirect
	github.com/golang/groupcache v0.0.0-20210331224755-41bb18bfe9da // indirect
	github.com/golang/protobuf v1.5.4 // indirect
	github.com/google/s2a-go v0.1.7 // indirect
	github.com/googleapis/enterprise-certificate-proxy v0.3.2 // indirect
	github.com/googleapis/gax-go/v2 v2.12.5 // indirect
	github.com/json-iterator/go v1.1.12 // indirect
	github.com/modern-go/concurrent v0.0.0-20180306012644-bacd9c7ef1dd // indirect
	github.com/modern-go/reflect2 v1.0.2 // indirect
	go.opencensus.io v0.24.0 // indirect
	go.opentelemetry.io/contrib/instrumentation/google.golang.org/grpc/otelgrpc v0.52.0 // indirect
	go.opentelemetry.io/contrib/instrumentation/net/http/otelhttp v0.52.0 // indirect
	go.opentelemetry.io/otel v1.28.0 // indirect
	go.opentelemetry.io/otel/metric v1.28.0 // indirect
	go.opentelemetry.io/otel/trace v1.28.0 // indirect
	go.uber.org/multierr v1.11.0 // indirect
	go.uber.org/zap v1.27.0 // indirect
	golang.org/x/crypto v0.24.0 // indirect
	golang.org/x/net v0.26.0 // indirect
	golang.org/x/oauth2 v0.21.0 // indirect
	golang.org/x/sync v0.7.0 // indirect
	golang.org/x/sys v0.21.0 // indirect
	golang.org/x/text v0.16.0 // indirect
	golang.org/x/time v0.5.0 // indirect
	google.golang.org/genproto v0.0.0-20240701130421-f6361c86f094 // indirect
	google.golang.org/genproto/googleapis/api v0.0.0-20240701130421-f6361c86f094 // indirect
	google.golang.org/genproto/googleapis/rpc v0.0.0-20240701130421-f6361c86f094 // indirect
	google.golang.org/grpc v1.65.0 // indirect
	google.golang.org/protobuf v1.34.2 // indirect
)
